…
``` code-output
## [1] 45
```

``` r
# Check the first six
head(survey_data)
```

``` code-output
## [[1]]
## # A tibble: 88 x 14
##    easting northing si1_loc_si si2_ar_si si3_dry_si si4_w_q_si si5_sh_si
##      <dbl>    <dbl>      <dbl>     <dbl>      <dbl>      <dbl>     <dbl>
##  1  375454   206955          1      0.63        0.9      1           0.4
##  2  411682   200040          1      1           0.9      1           1  
##  3  412901   201483          1      0.05        0.5      0.330       0.2
##  4  427081   211923          1      0.1         0.9      0.67        1  
##  5  427745   204935          1      0.05        0.1      0.67        1  
##  6  428595   200897          1      0.8         0.9      0.67        1  
##  7  437012   213410          1      0.1         0.1      0.330       0.4
##  8  440715   228762          1      0.1         1        0.67        1  
##  9  445151   217179          1      0.3         1        1           1  
## 10  445620   213501          1      0.05        0.5      0.67        0.3
## # … with 78 more rows, and 7 more variables: si6_fl_si <dbl>, si7_fh_si <dbl>,
## #   si8_pds_si <dbl>, si9_ter_si <dbl>, si10_mac_1 <dbl>, gcn_present <dbl>,
## #   day_of_month <dbl>
## 
## [[2]]
## # A tibble: 177 x 14
##    easting northing si1_loc_si si2_ar_si si3_dry_si si4_w_q_si si5_sh_si
##      <dbl>    <dbl>      <dbl>     <dbl>      <dbl>      <dbl>     <dbl>
##  1  353650   250059          1      0.97        0.9      0.330       0.6
##  2  324386   245133          1      0.21        0.5      0.01        1  
##  3  364709   241904          1      0.05        0.1      0.330       0.6
##  4  361940   253003          1      1           0.9      0.330       0.6
##  5  331272   233217          1      0.31        1        0.67        1  
##  6  330867   234516          1      0.05        0.5      0.67        0.6
##  7  332218   235237          1      0.63        1        0.67        1  
##  8  361601   249343          1      0.94        1        0.330       1  
##  9  328722   251850          1      0.63        0.9      0.67        1  
## 10  370759   244807          1      0.63        0.9      1           1  
## # … with 167 more rows, and 7 more variables: si6_fl_si <dbl>, si7_fh_si <dbl>,
## #   si8_pds_si <dbl>, si9_ter_si <dbl>, si10_mac_1 <dbl>, gcn_present <dbl>,
## #   day_of_month <dbl>
## 
## [[3]]
…
## 11  366000   392000          1      0.88        0.9      1           1  
## 12  368000   345000          1      0.52        0.9      0.330       1  
## 13  369000   387000          1      0.05        1        0.330       1  
## 14  372162   364776          1      0.42        0.5      0.67        1  
## 15  373000   385000          1      0.83        1        0.330       0.4
## 16  373207   346859          1      1           0.9      0.5         0.9
## 17  378000   356000          1      0.29        1        0.330       0.5
## 18  380000   367000          1      0.05        0.9      1           1  
## 19  384000   384000          1      0.89        0.9      0.67        0.8
## 20  387000   366000          1      1           0.9      0.330       1  
## # … with 7 more variables: si6_fl_si <dbl>, si7_fh_si <dbl>, si8_pds_si <dbl>,
## #   si9_ter_si <dbl>, si10_mac_1 <dbl>, gcn_present <dbl>, day_of_month <dbl>
## 
## [[5]]
## # A tibble: 152 x 14
##    easting northing si1_loc_si si2_ar_si si3_dry_si si4_w_q_si si5_sh_si
##      <dbl>    <dbl>      <dbl>     <dbl>      <dbl>      <dbl>     <dbl>
##  1  376158   213990          1      0.21        0.9      0.330       1  
##  2  378656   291120          1      0.05        0.9      0.67        0.2
##  3  381219   216956          1      0.1         0.5      0.67        1  
##  4  387662   214615          1      0.1         0.5      0.330       1  
##  5  397989   216171          1      0.1         1        0.330       0.7
##  6  403023   226210          1      0.63        0.9      0.67        1  
##  7  404678   225712          1      0.97        0.9      0.330       1  
##  8  408139   223257          1      0.42        1        0.67        1  
##  9  413699   227992          1      0.31        0.9      0.67        1  
## 10  413994   228021          1      0.1         0.1      0.67        1  
## # … with 142 more rows, and 7 more variables: si6_fl_si <dbl>, si7_fh_si <dbl>,
## #   si8_pds_si <dbl>, si9_ter_si <dbl>, si10_mac_1 <dbl>, gcn_present <dbl>,
## #   day_of_month <dbl>
## 
## [[6]]
## # A tibble: 178 x 14
##    easting northing si1_loc_si si2_ar_si si3_dry_si si4_w_q_si si5_sh_si
##      <dbl>    <dbl>      <dbl>     <dbl>      <dbl>      <dbl>     <dbl>
##  1  326000   252000          1      0.21       0.5       0.330       1  
##  2  364430   233056          1      0.52       1         0.01        1  
##  3  365008   236754          1      0.26       1         1           1  
##  4  370317   248243          1      0.52       0.9       0.01        1  
##  5  378259   255912          1      1          0.9       0.330       1  
##  6  378260   249362          1      1          0.9       0.67        1  
##  7  330947   254767          1      0.96       0.9       0.67        1  
##  8  509100   129300          1      1          0.5       1           1  
##  9  510290   128790          1      0.84       0.9       0.67        1  
## 10  564830   130930          1      0.05       0.01      0.330       0.6
## # … with 168 more rows, and 7 more variables: si6_fl_si <dbl>, si7_fh_si <dbl>,
## #   si8_pds_si <dbl>, si9_ter_si <dbl>, si10_mac_1 <dbl>, gcn_present <dbl>,
## #   day_of_month <dbl>
```
…
``` r
survey_data <-
  map2(.x = survey_data,
       .y = files_to_import,
      .f = ~ mutate(.x,
                file_path = .y))
```

``` r
# Check the first result:
survey_data[[1]]
```

``` code-output
## # A tibble: 88 x 15
##    easting northing si1_loc_si si2_ar_si si3_dry_si si4_w_q_si si5_sh_si
##      <dbl>    <dbl>      <dbl>     <dbl>      <dbl>      <dbl>     <dbl>
##  1  375454   206955          1      0.63        0.9      1           0.4
##  2  411682   200040          1      1           0.9      1           1  
##  3  412901   201483          1      0.05        0.5      0.330       0.2
##  4  427081   211923          1      0.1         0.9      0.67        1  
##  5  427745   204935          1      0.05        0.1      0.67        1  
##  6  428595   200897          1      0.8         0.9      0.67        1  
##  7  437012   213410          1      0.1         0.1      0.330       0.4
##  8  440715   228762          1      0.1         1        0.67        1  
##  9  445151   217179          1      0.3         1        1           1  
## 10  445620   213501          1      0.05        0.5      0.67        0.3
## # … with 78 more rows, and 8 more variables: si6_fl_si <dbl>, si7_fh_si <dbl>,
## #   si8_pds_si <dbl>, si9_ter_si <dbl>, si10_mac_1 <dbl>, gcn_present <dbl>,
## #   day_of_month <dbl>, file_path <chr>
```
…
The `date` variable is a bit more complex. The `file_path` only contains
the year and month of the survey. The day is stored within
`day_of_month`.

``` r
data %>% select(file_path, day_of_month)
```

``` code-output
## # A tibble: 5,870 x 2
##    file_path                                           day_of_month
##    <chr>                                                      <dbl>
##  1 data/raw/gcn survey results/Site A - April 2018.csv           17
##  2 data/raw/gcn survey results/Site A - April 2018.csv           18
##  3 data/raw/gcn survey results/Site A - April 2018.csv           18
##  4 data/raw/gcn survey results/Site A - April 2018.csv           18
##  5 data/raw/gcn survey results/Site A - April 2018.csv           19
##  6 data/raw/gcn survey results/Site A - April 2018.csv           19
##  7 data/raw/gcn survey results/Site A - April 2018.csv           19
##  8 data/raw/gcn survey results/Site A - April 2018.csv           25
##  9 data/raw/gcn survey results/Site A - April 2018.csv           24
## 10 data/raw/gcn survey results/Site A - April 2018.csv           24
## # … with 5,860 more rows
```
…
Check the function has worked using `select()` and `unique()`.

``` r
data %>% select(site_id, month_year) %>% unique()
```

``` code-output
## # A tibble: 45 x 2
##    site_id month_year
##    <chr>   <chr>     
##  1 Site A  April 2018
##  2 Site A  April 2019
##  3 Site A  July 2018 
##  4 Site A  June 2017 
##  5 Site A  June 2018 
##  6 Site A  June 2019 
##  7 Site A  May 2017  
##  8 Site A  May 2018  
##  9 Site A  May 2019  
## 10 Site B  April 2018
## # … with 35 more rows
```
…
``` code-output
## # A tibble: 5,870 x 19
##    easting northing si1_loc_si si2_ar_si si3_dry_si si4_w_q_si si5_sh_si
##      <dbl>    <dbl>      <dbl>     <dbl>      <dbl>      <dbl>     <dbl>
##  1  375454   206955          1      0.63        0.9      1           0.4
##  2  411682   200040          1      1           0.9      1           1  
##  3  412901   201483          1      0.05        0.5      0.330       0.2
##  4  427081   211923          1      0.1         0.9      0.67        1  
##  5  427745   204935          1      0.05        0.1      0.67        1  
##  6  428595   200897          1      0.8         0.9      0.67        1  
##  7  437012   213410          1      0.1         0.1      0.330       0.4
##  8  440715   228762          1      0.1         1        0.67        1  
##  9  445151   217179          1      0.3         1        1           1  
## 10  445620   213501          1      0.05        0.5      0.67        0.3
## # … with 5,860 more rows, and 12 more variables: si6_fl_si <dbl>,
## #   si7_fh_si <dbl>, si8_pds_si <dbl>, si9_ter_si <dbl>, si10_mac_1 <dbl>,
## #   gcn_present <dbl>, day_of_month <dbl>, file_path <chr>, site_id <chr>,
## #   month_year <chr>, date_string <chr>, date <date>
```
